{
  "tracks": {
    "href": "https://api.spotify.com/v1/search?query=the+nights&type=track&locale=en-GB%2Cen-US%3Bq%3D0.9%2Cen%3Bq%3D0.8%2Chi%3Bq%3D0.7&offset=0&limit=1",
    "limit": 1,
    "next": "https://api.spotify.com/v1/search?query=the+nights&type=track&locale=en-GB%2Cen-US%3Bq%3D0.9%2Cen%3Bq%3D0.8%2Chi%3Bq%3D0.7&offset=1&limit=1",
    "offset": 0,
    "previous": null,
    "total": 815,
    "items": [
      {
        "album": {
          "album_type": "album",
          "total_tracks": 4,
          "available_markets": ["AD", "AE", "AG", "AL", "AM", "AO", "AR", "AT", "AU", "AZ", "BA", "BB", "BD", "BE", "BF", "BG", "BH", "BI", "BJ", "BN", "BO", "BR", "BS", "BT", "BW", "BY", "BZ", "CA", "CD", "CG", "CH", "CI", "CL", "CM", "CO", "CR", "CV", "CW", "CY", "CZ", "DE", "DJ", "DK", "DM", "DO", "DZ", "EC", "EE", "EG", "ES", "ET", "FI", "FJ", "FM", "FR", "GA", "GB", "GD", "GE", "GH", "GM", "GN", "GQ", "GR", "GT", "GW", "GY", "HK", "HN", "HR", "HT", "HU", "ID", "IE", "IL", "IN", "IQ", "IS", "IT", "JM", "JO", "JP", "KE", "KG", "KH", "KI", "KM", "KN", "KR", "KW", "KZ", "LA", "LB", "LC", "LI", "LK", "LR", "LS", "LT", "LU", "LV", "LY", "MA", "MC", "MD", "ME", "MG", "MH", "MK", "ML", "MN", "MO", "MR", "MT", "MU", "MV", "MW", "MX", "MY", "MZ", "NA", "NE", "NG", "NI", "NL", "NO", "NP", "NR", "NZ", "OM", "PA", "PE", "PG", "PH", "PK", "PL", "PS", "PT", "PW", "PY", "QA", "RO", "RS", "RW", "SA", "SB", "SC", "SE", "SG", "SI", "SK", "SL", "SM", "SN", "SR", "ST", "SV", "SZ", "TD", "TG", "TH", "TJ", "TL", "TN", "TO", "TR", "TT", "TV", "TW", "TZ", "UA", "UG", "US", "UY", "UZ", "VC", "VE", "VN", "VU", "WS", "XK", "ZA", "ZM", "ZW"],
          "external_urls": {
            "spotify": "https://open.spotify.com/album/0h2knr6qpiAq0tV5ri5JMF"
          },
          "href": "https://api.spotify.com/v1/albums/0h2knr6qpiAq0tV5ri5JMF",
          "id": "0h2knr6qpiAq0tV5ri5JMF",
          "images": [
            {
              "url": "https://i.scdn.co/image/ab67616d0000b2730ae4f4d42e4a09f3a29f64ad",
              "height": 640,
              "width": 640
            },
            {
              "url": "https://i.scdn.co/image/ab67616d00001e020ae4f4d42e4a09f3a29f64ad",
              "height": 300,
              "width": 300
            },
            {
              "url": "https://i.scdn.co/image/ab67616d000048510ae4f4d42e4a09f3a29f64ad",
              "height": 64,
              "width": 64
            }
          ],
          "name": "The Days / Nights",
          "release_date": "2014-01-01",
          "release_date_precision": "day",
          "type": "album",
          "uri": "spotify:album:0h2knr6qpiAq0tV5ri5JMF",
          "artists": [
            {
              "external_urls": {
                "spotify": "https://open.spotify.com/artist/1vCWHaC5f2uS3yhpwWbIA6"
              },
              "href": "https://api.spotify.com/v1/artists/1vCWHaC5f2uS3yhpwWbIA6",
              "id": "1vCWHaC5f2uS3yhpwWbIA6",
              "name": "Avicii",
              "type": "artist",
              "uri": "spotify:artist:1vCWHaC5f2uS3yhpwWbIA6"
            }
          ]
        },
        "artists": [
          {
            "external_urls": {
              "spotify": "https://open.spotify.com/artist/1vCWHaC5f2uS3yhpwWbIA6"
            },
            "href": "https://api.spotify.com/v1/artists/1vCWHaC5f2uS3yhpwWbIA6",
            "id": "1vCWHaC5f2uS3yhpwWbIA6",
            "name": "Avicii",
            "type": "artist",
            "uri": "spotify:artist:1vCWHaC5f2uS3yhpwWbIA6"
          }
        ],
        "available_markets": ["AR", "AU", "AT", "BE", "BO", "BR", "BG", "CA", "CL", "CO", "CR", "CY", "CZ", "DK", "DO", "DE", "EC", "EE", "SV", "FI", "FR", "GR", "GT", "HN", "HK", "HU", "IS", "IE", "IT", "LV", "LT", "LU", "MY", "MT", "MX", "NL", "NZ", "NI", "NO", "PA", "PY", "PE", "PH", "PL", "PT", "SG", "SK", "ES", "SE", "CH", "TW", "TR", "UY", "US", "GB", "AD", "LI", "MC", "ID", "JP", "TH", "VN", "RO", "IL", "ZA", "SA", "AE", "BH", "QA", "OM", "KW", "EG", "MA", "DZ", "TN", "LB", "JO", "PS", "IN", "BY", "KZ", "MD", "UA", "AL", "BA", "HR", "ME", "MK", "RS", "SI", "KR", "BD", "PK", "LK", "GH", "KE", "NG", "TZ", "UG", "AG", "AM", "BS", "BB", "BZ", "BT", "BW", "BF", "CV", "CW", "DM", "FJ", "GM", "GE", "GD", "GW", "GY", "HT", "JM", "KI", "LS", "LR", "MW", "MV", "ML", "MH", "FM", "NA", "NR", "NE", "PW", "PG", "WS", "SM", "ST", "SN", "SC", "SL", "SB", "KN", "LC", "VC", "SR", "TL", "TO", "TT", "TV", "VU", "AZ", "BN", "BI", "KH", "CM", "TD", "KM", "GQ", "SZ", "GA", "GN", "KG", "LA", "MO", "MR", "MN", "NP", "RW", "TG", "UZ", "ZW", "BJ", "MG", "MU", "MZ", "AO", "CI", "DJ", "ZM", "CD", "CG", "IQ", "LY", "TJ", "VE", "ET", "XK"],
        "disc_number": 1,
        "duration_ms": 176658,
        "explicit": false,
        "external_ids": {
          "isrc": "CH3131340464"
        },
        "external_urls": {
          "spotify": "https://open.spotify.com/track/0ct6r3EGTcMLPtrXHDvVjc"
        },
        "href": "https://api.spotify.com/v1/tracks/0ct6r3EGTcMLPtrXHDvVjc",
        "id": "0ct6r3EGTcMLPtrXHDvVjc",
        "name": "The Nights",
        "popularity": 89,
        "preview_url": null,
        "track_number": 2,
        "type": "track",
        "uri": "spotify:track:0ct6r3EGTcMLPtrXHDvVjc",
        "is_local": false
      }
    ]
  }
}